term,positive/negative
οπως,+
καθως,+
πολυ,+
ονομα,+
εργο,+
συνεχεια,+
σαν,+
εργα,+
right,+
ιδιαιτερα,+
μεγαλυτερη,+
σχεση,+
αρκετα,+
επιτυχια,+
top,+
συμμετοχη,+
σημαντικο,+
κερδισε,+
χαρακτηριστικα,+
βοηθεια,+
τιμη,+
νικη,+
σημαντικα,+
βραβειο,+
οδηγησε,+
ακριβως,+
λοιπον,+
καλα,+
κορυφη,+
επανασταση,+
προταση,+
μπροστα,+
προτυπο,+
δικαιωμα,+
γρηγορα,+
υποστηριξη,+
μεγαλος,+
δεξια,+
ηττα,+
συμφωνια,+
χαρη,+
προστασια,+
ενοτητα,+
επιστροφη,+
αξια,+
καλυτερα,+
εργασια,+
τροπος,+
εργαστηκε,+
εξαιρετικα,+
πρωθυπουργος,+
πετυχε,+
χρυσο,+
οδηγει,+
μοναδα,+
εντονη,+
φτανει,+
εκθεση,+
πληρως,+
συμβολαιο,+
νικησε,+
θεραπεια,+
κυριαρχια,+
απελευθερωση,+
επιτυχιες,+
τεραστια,+
ικανοτητα,+
εντονα,+
καλυτερο,+
προσωπα,+
συζυγος,+
ειδικη,+
υποστηριζει,+
εισαγωγη,+
ποικιλια,+
προσφορα,+
προσεγγιση,+
κυριος,+
πρωταθλητης,+
αγαπη,+
πιστη,+
βοηθησε,+
συνεισφορα,+
ληξη,+
απλη,+
ασφαλεια,+
ελευθερια,+
περιουσια,+
καθαρα,+
σημαντικος,+
ειρηνη,+
βελτιωση,+
τυχη,+
ακριβεια,+
οδηγησει,+
σταθερα,+
σωστα,+
πληροφορια,+
αισθηση,+
νοημα,+
βαθια,+
εργοστασιο,+
νικητης,+
ηρωας,+
δημοφιλης,+
ενισχυση,+
σαφως,+
τροφη,+
υποστηρικτες,+
ακτινοβολια,+
συσταση,+
δασκαλος,+
νικητες,+
επιτρεπεται,+
Βραβεια,+
διακριθηκε,+
ταλεντο,+
κατανοηση,+
πετυχει,+
ακριβης,+
κορυφες,+
θεωρω,+
προσωπικοτητα,+
πλεονεκτημα,+
δημιουργος,+
θετικα,+
εξισου,+
νικωντας,+
πρωτοτυπο,+
ηθικη,+
αρκει,+
ισορροπια,+
σωστο,+
δωρεαν,+
διασημος,+
κερδιζει,+
αφιερωμενο,+
καλυτερος,+
ελευθερος,+
συμφεροντα,+
θελω,+
διατηρησει,+
κεντρικος,+
χαρα,+
αξιολογο,+
ηττες,+
μεταρρυθμισεις,+
επιτυγχανεται,+
επιμελεια,+
παθος,+
αγιος,+
κερδη,+
ομορφια,+
εντολων,+
αρεσει,+
ολοκληρωσει,+
καλος,+
εγκριση,+
θειος,+
οφελος,+
φαντασια,+
δωρο,+
ομορφη,+
συγχρονος,+
τροπαιο,+
σπορ,+
εμπιστοσυνη,+
αναγλυφο,+
συμβαση,+
ανατολη,+
κυρος,+
νικητρια,+
ξεπερασει,+
κυριαρχει,+
ικανος,+
χρυσος,+
επισημος,+
εντυπωσιακο,+
πραγματικος,+
εγκριθηκε,+
αρχηγια,+
αποτελεσματικα,+
ωραια,+
ξεπερασε,+
μεταρρυθμιση,+
παραταση,+
οδηγια,+
πιστος,+
υπεροχη,+
φιλικα,+
στερεο,+
εκπληξη,+
βελτιωσεις,+
πλεονεκτηματα,+
επιτυχως,+
αερας,+
υποστηρικτης,+
απλος,+
τακτικος,+
δοξα,+
ανακαλυψεις,+
αξιοπιστια,+
σταθεροτητα,+
ευκολια,+
δικαιοσυνη,+
ουρανια,+
θεληση,+
μαγεια,+
αρμονια,+
εμπνευση,+
σαφης,+
ωθηση,+
αξιοσημειωτη,+
ετοιμος,+
ουσιαστικο,+
μοδας,+
ηθη,+
προβολης,+
αγαπημενη,+
ταχεια,+
υποσχεθηκε,+
ιδανικο,+
αποτελεσματικοτητα,+
ευνοια,+
ενθουσιασμο,+
τελεια,+
αποδεικνυει,+
κυριαρχουν,+
θαυμα,+
ευημερια,+
ισχυρος,+
θαρρος,+
σπουδαιος,+
πλουσιος,+
υπερβαινει,+
συμφωνο,+
ερωμενη,+
γραφικα,+
επαθλο,+
υποσχεση,+
προτροπη,+
εγκαινια,+
κινητρα,+
επιτευγματα,+
διορθωση,+
καινοτομια,+
θερμα,+
συγγενεια,+
ευχαριστω,+
προβλεψη,+
επιβιωση,+
οφελη,+
επιμονη,+
ασφαλως,+
χιουμορ,+
ανωτερος,+
ανθηση,+
κερδος,+
εντυπωσιακα,+
ομαλη,+
χρησιμες,+
προνομιο,+
θεολογος,+
διευκολυνει,+
επιτυχης,+
αισθησεις,+
εξασφαλιζοντας,+
καταλαβαινω,+
ισχυροτερη,+
απορροφηση,+
αριστα,+
ανεση,+
σοφια,+
φημης,+
ικανοποιηση,+
ενδιαφερουσα,+
επαρκως,+
ετοιμη,+
αναβιωση,+
μυθικος,+
ασυνηθιστο,+
ανακτηση,+
τιμησε,+
ελξη,+
ευεργετης,+
ζωντανος,+
επιτευγμα,+
ασφαλης,+
καλως,+
like,+
ανταποκρινεται,+
ηρωιδα,+
αναγεννηση,+
αυτονομες,+
ανωτατος,+
βελτιωθει,+
καπετανιος,+
εκκληση,+
προοδος,+
λαμπροτητα,+
συνοχη,+
ερωτας,+
φιλοδοξιες,+
ομορφα,+
ευγενης,+
περιφημος,+
επιπλοκες,+
οικονομικος,+
πιστα,+
λαμψη,+
ειρηνικα,+
σταθερος,+
πλουτος,+
κυρους,+
ικανοποιητικα,+
εφικτο,+
απλουστερη,+
ικανοποιει,+
θαυματα,+
ευτυχια,+
ανδρεια,+
κεραια,+
επιβεβαιωση,+
αφθονια,+
αφοσιωση,+
σαφηνεια,+
ενισχυει,+
αρετη,+
ελευθεριες,+
αφθονα,+
εξαγορα,+
αριστη,+
συμπαθεια,+
ηρεμια,+
βασιλικος,+
αναγνωρισμενη,+
ταχυτερα,+
ολοκληρος,+
αναμφιβολα,+
ιδανικα,+
συμπληρωνει,+
εγγυηση,+
δεσμευση,+
αγαπουσε,+
εφεση,+
εμμονη,+
πλοιαρχος,+
ανταμοιβη,+
ειδωλο,+
αγαπα,+
ευκολοτερη,+
φανταστικος,+
υποχρεωμενος,+
καθαρισμο,+
ευχαριστηση,+
διακεκριμενος,+
ηθος,+
απολαμβανει,+
παθη,+
αρμοδιος,+
ανακουφιση,+
προτιμα,+
δικαια,+
αριστουργημα,+
ανθεκτικο,+
διαδεχομενος,+
καταλληλος,+
νομιμος,+
ουρανος,+
γενναια,+
υποδειγμα,+
υπομονη,+
αναθεσει,+
αγια,+
φανερα,+
σουπερ,+
πηγαδι,+
ανυψωση,+
αυγη,+
συνδεδεμενος,+
μετασχηματισμος,+
παροτρυνση,+
νοημοσυνη,+
γνωστης,+
ενσωματωθει,+
διορθωσει,+
αληθης,+
ακουστικη,+
ταλεντα,+
κυριαρχος,+
γοητεια,+
ευτυχως,+
ελεος,+
θαυμασια,+
κοινωνικος,+
γενναιοτητα,+
παραποταμος,+
διευκολυνουν,+
χαρισμα,+
υποσχεται,+
αφεντικο,+
ευχαριστο,+
εκπληρωση,+
σωστος,+
περιφημα,+
επικυρωσε,+
εντυπωσιασε,+
κοσμημα,+
διαθεσιμος,+
αριστουργηματα,+
ομαλα,+
εορτασμος,+
αγαπητος,+
ορθοτητα,+
επιφανης,+
συνισταται,+
διασκεδαση,+
αναμφισβητητα,+
συστασεις,+
προβαδισμα,+
ακεραιος,+
εκτακτη,+
πρωτοποριακη,+
μεγαλειο,+
εραστης,+
εκτιμηθει,+
γρηγοροτερα,+
αγγελος,+
free,+
πανοραμικη,+
επιτυγχανει,+
αρχαιοτερος,+
εκτακτος,+
φιλοδοξια,+
ευφυια,+
επαρκης,+
απελευθερωθει,+
υπερμαχος,+
ορθα,+
θαυμαστης,+
αγαπημενος,+
σθεναρα,+
συμπληρωμα,+
υπερβαινουν,+
πρωτοτυπια,+
βελτιωνει,+
αξιοπιστα,+
αγαπημενα,+
φανταζομαι,+
σοφος,+
ελευθερωσει,+
ηρωικα,+
προσβασιμο,+
ευγενεια,+
ανανεωθηκε,+
υποστηριζονται,+
οικονομιες,+
αρμονικα,+
απονεμηθει,+
αηττητος,+
ανθρωπινος,+
αναδιαρθρωση,+
συμφιλιωση,+
αριστος,+
θετικος,+
διαρκης,+
ικανοποιουν,+
ενθαρρυνση,+
βελτιστη,+
αναμορφωση,+
νηστεια,+
μεγαλοπρεπεια,+
πνευματικος,+
διαμαντι,+
χαλαρη,+
συμβατο,+
ευλογια,+
εντονος,+
πολυτελεια,+
κατορθωμα,+
χρησιμος,+
θριαμβος,+
εκτιμα,+
βεβαιος,+
ολοκληρωμα,+
κυριαρχειται,+
κουραγιο,+
ησυχια,+
εκπληκτικα,+
αποδεικνυοντας,+
συγκινηση,+
σεβασμος,+
γενναιος,+
φημισμενος,+
σταθεροποιηση,+
προθυμος,+
μολυβδος,+
θερμος,+
αξιοπρεπεια,+
εμπειρος,+
λατρης,+
αντικατασταθουν,+
φρεσκο,+
φιλικος,+
ζενιθ,+
καλοσυνη,+
αναβολη,+
ανθος,+
μολυβι,+
διαχυση,+
γρηγορος,+
τελειοτητα,+
ενεργητικη,+
love,+
προσπαθω,+
ιδεωδες,+
δικαιος,+
αλληλεγγυη,+
καταπληκτικη,+
ωριμοτητα,+
καθαρος,+
ζωντανια,+
ενθουσιασμος,+
ταχεως,+
ενισχυμενη,+
ακεραια,+
εξυπνος,+
solid,+
ωραιοτερα,+
συναφεια,+
μορφωμενος,+
λαμπρος,+
ευνοειται,+
work,+
best,+
συνεταιρισμος,+
σθενος,+
ευγνωμοσυνη,+
εξαιρετικος,+
συνεση,+
προθυμια,+
πεπρωμενο,+
επιζων,+
προτιμω,+
αρκετος,+
αγαπω,+
Πλεονεκτηματα,+
υποσχομενος,+
ξεπεραστει,+
γαληνη,+
απολαυση,+
συνεπης,+
καυτο,+
κατανοητος,+
τελειος,+
πλουσιοτερη,+
ευχαριστημενος,+
ευνοουν,+
ειλικρινεια,+
γιορτασε,+
αντιλαμβανομαι,+
αισιοδοξια,+
χαλαρωση,+
ειλικρινα,+
διεγειρει,+
συμπαγης,+
υψηλος,+
υπευθυνα,+
εντυπωσιαζει,+
αφοσιωμενος,+
ακμαζουσα,+
προσεκτικος,+
παραγωγικος,+
καλλιστα,+
ευγενικα,+
ευελικτο,+
ελκυστικο,+
υπερηφανεια,+
προνοια,+
λιτοτητα,+
ευσεβης,+
επιδεξιοτητα,+
αποτελεσματικος,+
αξιζουν,+
αξιος,+
ομορφος,+
τιμωντας,+
προοιμιο,+
επιμελως,+
support,+
πλωτος,+
θρυλικος,+
εμπνευσει,+
αγελη,+
τρομπετα,+
ταλαντουχος,+
μεγαλοπρεπης,+
αφθονουν,+
προεξοχη,+
ευκολος,+
εναρμονιση,+
Masters,+
συναρπαστικο,+
προτιμωντας,+
επιθυμωντας,+
φωτεινοτερος,+
παζαρι,+
εντυπωσιασει,+
fair,+
χαμογελο,+
ευχαριστα,+
ευδοκιμουν,+
συγχαρητηρια,+
κομψοτητα,+
ευφυης,+
ειλικρινης,+
αριστοκρατικο,+
οαση,+
φωτεινοτερο,+
συναρπαστικη,+
λυρικος,+
καινοτομες,+
διαπρεπης,+
ανακαινισμενο,+
ησυχα,+
bonus,+
φιλοδοξος,+
υπερασπιστης,+
αναβιωσει,+
ωραιος,+
στοχαστρο,+
περιπετειωδη,+
εξελιγμενα,+
δυσκολοτερο,+
well,+
important,+
πατριωτης,+
ουσιαστικος,+
καινοτομος,+
εμπιστος,+
good,+
υπεροχα,+
ηθικος,+
επιεικεια,+
εμπνεει,+
αξιοπρεπη,+
φωτιζει,+
τυχερος,+
οικειοθελως,+
θεαματικα,+
ευτυχισμενος,+
επαναφερω,+
φιλανθρωπικες,+
ευρυθμη,+
διαβεβαιωσεις,+
παραδεισος,+
ηδονη,+
επιδομα,+
εξυπναδα,+
αξιοπιστος,+
αναρωτιεμαι,+
progressive,+
παρηγορια,+
ευλαβεια,+
master,+
ρομαντικος,+
πολυτιμος,+
ευμαρεια,+
ευγενικος,+
αναβιωνει,+
χαρουμενος,+
υγιης,+
παραγωγικα,+
θεαματικη,+
ευκινησια,+
εκπληκτος,+
φωτεινος,+
συμπληρωνονται,+
προσφατος,+
ευρυχωρο,+
ατου,+
απολαμβανοντας,+
super,+
σαλπιγγα,+
ιδανικος,+
ευνοουμενος,+
επιδεξια,+
εντυπωσιακος,+
γνησιος,+
αιωνιος,+
λεπτος,+
δυναμικος,+
αηττητο,+
εκσταση,+
προσιτη,+
λεπτοτητα,+
εξεχων,+
ενθουσιασμενος,+
τονωση,+
συνηγορος,+
στοργη,+
πολυτελης,+
πιστοτητα,+
μετριοπαθεια,+
λατρευε,+
ευσεβεια,+
εμμονες,+
works,+
ομοιος,+
εισφορα,+
διπλωματικος,+
αδιαμφισβητητη,+
χαλαζι,+
συνεκτικη,+
σεξι,+
προθυμα,+
ορθως,+
εορταστικη,+
εναρετος,+
απλοποιημενη,+
προηγμενες,+
πρακτικος,+
κομψη,+
δεξιοτητα,+
καθαριοτητα,+
θερμη,+
ευτυχης,+
επιδεχονται,+
δικαιωματικα,+
γενναιοδωρια,+
αψογα,+
correct,+
ευφορια,+
γραφικος,+
ηρεμος,+
συγχορδια,+
λυτρωση,+
επαναστατικος,+
ιντριγκες,+
ωφελεια,+
χειραφετηση,+
χαρισματικος,+
μοχλευση,+
λογικος,+
καλωσορισμα,+
εργατικος,+
ανθεκτικος,+
χιουμοριστικα,+
φιλανθρωπος,+
υπερηφανος,+
υπερεχει,+
τιμιος,+
συμπονια,+
στρατηγικος,+
ορθος,+
μπονους,+
κομψα,+
καθαριζει,+
ευστροφια,+
ευδαιμονια,+
αξιοσημειωτος,+
αφεση,+
ωριμος,+
συμπαθης,+
νικηφορος,+
μαλακος,+
ευπορος,+
δημιουργικος,+
γλυκισμα,+
βιωσιμης,+
αριστοκρατης,+
πειστικα,+
μαγευτικη,+
καθησυχασει,+
θρεψει,+
θαυμασμος,+
ευπροσδεκτος,+
βαθυς,+
αυθεντικος,+
αποφασιστικος,+
αλαθητο,+
traction,+
προικισμενος,+
διαβεβαιωση,+
modern,+
χαιρομαι,+
σκληροτερη,+
ουρανιος,+
ολοκληρωμενος,+
θεικος,+
ευχαριστως,+
εξυψωση,+
διαφανης,+
εξοχα,+
transparent,+
ευχαριστει,+
επιμενω,+
επιδεξιος,+
αναδιπλουμενη,+
αεροδυναμικος,+
ινδαλμα,+
αγια,+
greatest,+
τολμηρος,+
στερεο,+
σεβομαι,+
προσπερασει,+
παρακινηση,+
καλω,+
γουον,+
γενναιοδωρος,+
αθλος,+
χρυσαφι,+
υποστηρικτικη,+
σχολαστικα,+
συνετος,+
συζητω,+
οικειοτητα,+
ξεκαθαρος,+
καλλονη,+
αρωματικος,+
αναζωογονηση,+
αγγελιαφορος,+
χαιρετισμος,+
φουτουριστικο,+
φθηνοτερο,+
υποστηριζω,+
τοκος,+
σεμνοτητα,+
θερμοτερος,+
ευφοριας,+
εξαισια,+
δικαιουχος,+
απαραμιλλη,+
pride,+
hot,+
grand,+
available,+
πολυμαθης,+
θαυματουργος,+
ευγλωττια,+
επικερδης,+
ενδιαφερων,+
αδρα,+
εντιμος,+
φρεαρ,+
ταλαντο,+
στερεος,+
προσφιλης,+
προσφερω,+
περιεκτικη,+
θαρραλεα,+
ευρυς,+
διαφοροποιημενη,+
αφεντης,+
ατρομητος,+
αισιοδοξη,+
ενθερμα,+
great,+
σβουρα,+
οραματιστης,+
λατρευεται,+
ιδιοφυια,+
επιμονος,+
εμπλουτιζουν,+
διυλιση,+
διαισθητικη,+
αφθονει,+
αισθητος,+
αβιαστα,+
compact,+
χτυπημενος,+
φυλαχτο,+
συγκινησεις,+
πετυχημενος,+
λειος,+
καλλιεργωντας,+
ευημερουσα,+
επιδοτηση,+
επευφημιες,+
εκτιμω,+
εγκαρδια,+
απλοποιει,+
ανθρωπιστης,+
αμεροληψια,+
τιμιοτητα,+
ευχαριστος,+
επιμελης,+
απεριφραστα,+
ανυψωσει,+
πραος,+
οξυς,+
θεικα,+
ζεστασια,+
εφικτος,+
αξιοπρεπης,+
αξεχαστη,+
αγνος,+
αγαθος,+
ready,+
lead,+
fans,+
creative,+
σεμνος,+
μαγεμενο,+
ζηλος,+
δελεασει,+
αποκτηθουν,+
εξοχος,+
trust,+
soft,+
happy,+
υπεροχος,+
συμφωνος,+
συνεργατικη,+
σουρεαλιστικο,+
προσπερασε,+
μνημειωδης,+
καταπληκτικα,+
ζεστος,+
ευνοικος,+
ευκαμψια,+
επαληθευσιμα,+
αφροκρεμα,+
instrumental,+
fun,+
συνεργατικα,+
σιωπηλος,+
πνευματωδης,+
παθιασμενος,+
νομιμως,+
μαεστρια,+
κλασσικος,+
ευφυια,+
ευφραδεια,+
ευκολοτερος,+
ευγνωμων,+
επιπολαια,+
διαφωτιση,+
γλυκος,+
αστρικος,+
clear,+
σταθεροτερη,+
καραμελα,+
καλυτερευση,+
ικανοποιητικος,+
θαρραλεος,+
εφαρμοσιμη,+
ευθυτητα,+
ενεργητικος,+
εκπληκτικος,+
διακαως,+
διεση,+
γοητευτικος,+
ανδρειος,+
ενδοξος,+
Έκσταση,+
fine,+
σωτηρας,+
συναφης,+
συμπληρωματικος,+
σκουπισμα,+
πρωτοποριακος,+
παραστημα,+
καταφατικη,+
θαυμαστος,+
ευελικτος,+
επιθυμητος,+
ελαστικος,+
διορθωνω,+
απλουστευση,+
ανεμιστηρας,+
ανικητος,+
αγαπητικος,+
useful,+
talent,+
strong,+
fast,+
better,+
ψιλοκομμενο,+
φορητος,+
συνεκτικος,+
προσελκυονται,+
προοδευτικος,+
πλουσιοπαροχα,+
οξυδερκης,+
λεπτοτερα,+
ισορροπη,+
εξατομικευμενη,+
δεσποτικος,+
ανεμιστηρες,+
positive,+
gold,+
faith,+
υπομονετικα,+
τρομπετιστας,+
ταχυς,+
προσαρμοστικη,+
νοστιμα,+
θαυμαζοντας,+
ηχηρο,+
ειρηνικος,+
εγωισμος,+
διαυγης,+
βελτιωσετε,+
αδεσμευτη,+
επαινος,+
win,+
significant,+
leading,+
ethical,+
dynamic,+
awards,+
χαιρετω,+
φρεσκος,+
ταπεινοτητα,+
τερψη,+
προστατευτικος,+
προσιτος,+
πολυμηχανος,+
πειστικος,+
οικειος,+
μπαμ,+
μαγικος,+
κομψος,+
θεαματικοτητα,+
επιεικης,+
αναντικαταστατος,+
αληθως,+
αισιοδοξος,+
αδιαφιλονικητος,+
αφθονος,+
safe,+
proper,+
peace,+
enough,+
ρεαλιστικος,+
προεξεχων,+
παρακειμενος,+
λατρευονται,+
καλοηθης,+
επαγρυπνηση,+
ενθουσιαζει,+
εκκρεμη,+
διαβημα,+
δεοντως,+
αξεχαστες,+
ανοξειδωτος,+
αγιασμενο,+
welcome,+
led,+
intelligence,+
humor,+
excel,+
easy,+
χρηματοκιβωτιο,+
χαμογελα,+
φλογερος,+
φιλοφρονηση,+
υπενθυμιζω,+
τρυφερος,+
προχωρω,+
προνομιουχος,+
προκοπη,+
ποιητικος,+
ομαλος,+
﻿κατηγορια,-
αγωνες,-
θεμα,-
εκδοση,-
πισω,-
μολις,-
κατασταση,-
παραδοση,-
θεματα,-
προβλημα,-
προβληματα,-
επιθεση,-
αγωνιστηκε,-
συγκροτημα,-
κατηγοριες,-
εννοια,-
βαρος,-
χρωμα,-
αντικειμενο,-
τιτλος,-
λιμανι,-
καταστροφη,-
ορια,-
προκαλεσε,-
κριτικη,-
λαθος,-
ζητημα,-
πτωση,-
σταση,-
αρνηθηκε,-
συγκρουση,-
αγωνας,-
επιθεσεις,-
μυθιστορημα,-
κριση,-
παραιτηθηκε,-
ερειπια,-
επεσε,-
αναλυση,-
πολιορκια,-
προσοχη,-
ελλειψη,-
εκρηξη,-
μειωση,-
μεγεθους,-
αντισταση,-
διαιρεση,-
οριο,-
δολοφονια,-
δυσκολο,-
απωλειες,-
χρονος,-
γενος,-
σοβαρα,-
συμπτωματα,-
εξεγερση,-
θανατος,-
ριζες,-
απωλεια,-
υπεστη,-
συγκρουσεις,-
αντιμετωπισει,-
σιγα,-
διαμαχη,-
εμφαση,-
κολπο,-
αντιμετωπιση,-
αποτυχια,-
απετυχε,-
ευθυνη,-
διαλυση,-
σκοτωσε,-
φυλακη,-
παραιτηση,-
αγνωστος,-
κενο,-
ενταση,-
κλιση,-
καταστροφες,-
διακρισεις,-
υπευθυνος,-
απειλη,-
σκοτωσει,-
μηδεν,-
απουσια,-
κακο,-
πληρης,-
ποινη,-
προκαλουν,-
μοιρα,-
τυχαια,-
θεα,-
αργα,-
χανει,-
περιορισμενη,-
παρεμβαση,-
δυσκολιες,-
σημαιας,-
ταξινομηση,-
αδυναμια,-
διασπαση,-
καταρρευση,-
κινδυνος,-
διακοπη,-
σιγουρα,-
σοβαρη,-
φρουρα,-
συλληψη,-
ριζα,-
εκμεταλλευση,-
πεσει,-
πεθαινει,-
μυθος,-
εξορια,-
διαθεσιμο,-
σκληρη,-
ζωο,-
θυμα,-
αυστηρα,-
φυγη,-
λαθη,-
ξεσπασμα,-
φευγει,-
μειωνεται,-
συγχυση,-
αποφυγει,-
ατυχημα,-
παλη,-
εχθρους,-
τραγωδια,-
σπηλαιο,-
αρνειται,-
ρηξη,-
διαταραχη,-
ανταρτες,-
σφαγη,-
ανατροπη,-
δυσκολια,-
αρνηση,-
αρνητικα,-
αγρια,-
προσβολη,-
πεναλτι,-
απαγορευση,-
υποχωρηση,-
διασταση,-
τιμωρια,-
συνδρομο,-
σμηνος,-
βλαβη,-
παρακμη,-
επιβολη,-
επιθετικος,-
εισβολης,-
φυλακιση,-
ιδιοκτητης,-
λιμανια,-
εκρηξεις,-
φημες,-
σκοτωνει,-
παραβιαση,-
δυστυχως,-
τευχος,-
κριτικος,-
προδοσια,-
αντιπαλος,-
καταδικη,-
σκληρα,-
χρεη,-
χτυπημα,-
διαφωνια,-
αντιπαραθεση,-
σκανδαλο,-
νεκροι,-
καταστραφει,-
διατριβη,-
προκληση,-
πλοκη,-
υπερβολικη,-
αναμετρηση,-
αντιπολιτευση,-
οργη,-
επιβλεψη,-
κυρια,-
Θανατος,-
νεκρος,-
καθυστερηση,-
καταστρεψει,-
φραγμα,-
εκδικηση,-
εγκλημα,-
σφαλμα,-
υποταγη,-
αρνητικο,-
σπηλια,-
λειπει,-
καταστολη,-
διαδηλωσεις,-
ανεβαινει,-
συντριπτικη,-
εκβαση,-
σκονη,-
συνωμοσια,-
διαμετρου,-
λεκανη,-
δεξαμενη,-
κοινος,-
προτομη,-
κληση,-
διακοπες,-
χτυπησε,-
εμποδιο,-
νοσος,-
λανθασμενα,-
επανελθει,-
βομβα,-
προπαγανδα,-
εσπασε,-
παρανομη,-
απειλες,-
κινδυνους,-
καταδικασε,-
εχθρος,-
απομονωση,-
ανησυχια,-
λεια,-
στενος,-
παχος,-
κενα,-
αποσπασει,-
καυση,-
επιδημια,-
διωξη,-
αμφισβητηση,-
χρεος,-
κρυο,-
error,-
αποζημιωση,-
καταθλιψη,-
οπαδος,-
δυνατα,-
διαφθορα,-
ρητορικη,-
μολυνση,-
διαμαρτυριες,-
μειονεκτημα,-
αποτομα,-
εγκειται,-
πεινα,-
ηγεμονια,-
δυστυχημα,-
δεξαμενες,-
βασανιστηρια,-
αμφιβολια,-
συνδρομη,-
αντιρρησεις,-
πληγμα,-
οσμη,-
μυστηριο,-
ισχυριζονται,-
εκδικηθει,-
μισος,-
ανεπαρκεια,-
πονος,-
λοιμωξη,-
κακως,-
αυτοκτονια,-
φτωχεια,-
σφαλματα,-
δυσαρεσκεια,-
φοβος,-
ριζικα,-
ιος,-
ζημια,-
διαβρωση,-
εξοντωση,-
βυθιστηκε,-
αμφιβολιες,-
σκληροτητα,-
τερας,-
μαχαιρι,-
καταχρηση,-
αναστολη,-
νυχια,-
ενεδρα,-
ανταγωνισμος,-
ανεπιτυχως,-
die,-
καταστροφικη,-
επιφανειακη,-
σφαγες,-
χαμηλοτερες,-
φθορα,-
απορριψη,-
υποχωρησε,-
ποτο,-
ομολογια,-
προειδοποιηση,-
ναυαγιο,-
θανασιμα,-
εμφανως,-
χειροτερο,-
περιορισμος,-
δηλητηριο,-
απορριπτει,-
αγχος,-
παραβαση,-
λαφυρα,-
ανησυχιες,-
λοιμωξεις,-
δικαιολογια,-
ιχνος,-
κατηγορει,-
συντριβη,-
φορολογια,-
δοκιμασια,-
αποκλιση,-
χαος,-
τονος,-
σκοταδι,-
εμπλακει,-
δοχειο,-
χανουν,-
υποψιες,-
ληξει,-
ασταθεια,-
αποκλεισμος,-
παρανομα,-
καταστρεφοντας,-
θλιψη,-
αντιθετος,-
τριχες,-
συντομια,-
περιορισει,-
τονιζει,-
εξαλειψη,-
προσωρινος,-
κακος,-
ισχυρισμους,-
τυραννος,-
καταδιωξη,-
ζηλο,-
ασυνηθιστα,-
αναταραχη,-
καρκινος,-
στιγμα,-
παθητικη,-
δολοφονος,-
αδιεξοδο,-
ελειπε,-
υποχωρησαν,-
απομειναρια,-
ανατρεψει,-
αδυναμιες,-
ξενος,-
υφεση,-
θραυσματα,-
υποκεινται,-
πατωμα,-
ματαια,-
καρχαριας,-
γκετο,-
φλεγμονη,-
καταγγελιες,-
αιρεση,-
περιορισμοι,-
μειονεκτηματα,-
Διαφορα,-
καταιγιδα,-
οικοπεδο,-
απογοητευση,-
υποφερει,-
συρραξη,-
παραμυθι,-
παγιδα,-
καιγεται,-
κλοπη,-
ιδιοκτητο,-
απατη,-
αιμορραγια,-
φαουλ,-
παραμορφωση,-
δραστικα,-
διαμαρτυρια,-
αναιρεση,-
διαφωνω,-
αντιρρηση,-
αδιαφορια,-
νεφος,-
σοβαροτητα,-
νανος,-
εσφαλμενα,-
ελλειψεις,-
καταπιεση,-
ισχυρισμος,-
διακοπει,-
συγνωμη,-
μεταστροφη,-
κατηγορωντας,-
αποτυγχανει,-
λογων,-
σκλαβοι,-
λασπη,-
καπνος,-
ενοχος,-
αρρωστος,-
διαφωνησε,-
αντιθεσεις,-
τιμωρησει,-
εχθροτητα,-
εντομο,-
κλησεις,-
διαλειμμα,-
καταρα,-
καπνισμα,-
εξοριστος,-
αστειο,-
προσχημα,-
πασχουν,-
καθειρξη,-
γενοκτονια,-
πληγες,-
υποτελης,-
βαλβιδα,-
αποτυχιες,-
εχθροπραξιων,-
συμπτωμα,-
σκελετος,-
πυρετος,-
λυπη,-
τεχνασμα,-
πλανη,-
λιπαρα,-
φοβαται,-
λεηλασια,-
λιπος,-
καταστροφικες,-
επιβαλλουν,-
πτυχη,-
επιφανειακα,-
διαγραψει,-
συμπτωση,-
ομιχλη,-
γεματος,-
παρωδια,-
καταγγελια,-
ειρωνεια,-
τριβη,-
οπη,-
εξατμιση,-
δυσμενεια,-
αρπαγη,-
αποτροπη,-
αδικημα,-
αγωνια,-
αγνοια,-
αρρωστια,-
εμποδιζουν,-
κρυπτογραφησης,-
τραυμα,-
τεραστιος,-
θανατωση,-
αυστηροτητα,-
ασταθης,-
υπερβολη,-
τρομοκρατια,-
οπες,-
ενοχλει,-
ιζημα,-
πρυμνη,-
πανωλης,-
τοξικοτητα,-
τελεσιγραφο,-
κακα,-
δουλος,-
σοκ,-
εσφαλμενη,-
εκμεταλλευονται,-
αφανεια,-
φτωχος,-
αποσυνθεση,-
πτωχευση,-
κακουχιες,-
αντιτορπιλικο,-
ανικανος,-
φιλοξενουν,-
προσκρουση,-
ντροπη,-
απολυτος,-
αναστατωση,-
παραπονα,-
αμαρτια,-
θυελλα,-
διαφωνει,-
απογοητευμενος,-
υποψια,-
σκανδαλα,-
επιφυλαξεις,-
εξοργισε,-
εξωτερικος,-
προτομες,-
προκαταληψη,-
πενθος,-
παγος,-
μαριονετα,-
δαιμονας,-
ξηρασια,-
επιθετικα,-
απολογια,-
ανεπαρκης,-
συνετριβη,-
πορνη,-
καταστρεφουν,-
δικτατορας,-
σιδηροδρομικων,-
νοθος,-
ανακριβειες,-
τραυματιστει,-
πονους,-
καθυστερησεις,-
διαδεδομενος,-
αδικηματα,-
παρεμβολη,-
δυσφορια,-
ανισοτητα,-
υποταξει,-
ασθενεστερη,-
στερειται,-
αντιπαραθεσεις,-
sin,-
false,-
κολαση,-
αποβλητα,-
τρελα,-
επικριτες,-
επιδεινωση,-
διενεξη,-
ανωμαλια,-
αλλοιωση,-
εμπνευστης,-
ελκυστικη,-
διαρροη,-
φανατικος,-
μισος,-
εμβολιο,-
φυλακισμενος,-
τιμημα,-
οριακα,-
καψιμο,-
ενοχη,-
αναρχια,-
ναρκη,-
επικινδυνος,-
αδρανεια,-
στρες,-
επαναλαμβανομενες,-
χειρισμος,-
δυσπιστια,-
παραδεχθηκε,-
ματαιωθηκε,-
ασαφης,-
ρωγμες,-
παρεμβαινει,-
διλημμα,-
αυστηρος,-
ακυρωσει,-
ερημος,-
αδικα,-
Κολαση,-
ομηρος,-
υποβιβασμος,-
συννεφο,-
ορφανος,-
κατηγορηματικα,-
ανικανοτητα,-
αμφιλεγομενο,-
περιορισμενος,-
μυρωδια,-
θηραμα,-
αρρηκτα,-
φανατικους,-
μαρτυριο,-
καταργησει,-
ψευδαισθηση,-
ρεαλιστικο,-
πτωσεις,-
πληγη,-
ομολογιες,-
νοθο,-
μοναδικοτητα,-
φρικη,-
ομοιωμα,-
θορυβος,-
αναποφευκτα,-
ψεμα,-
σπασιμο,-
ζημια,-
εχθρα,-
προειδοποιησε,-
καχυποψια,-
ερειπωμενο,-
επιθετικοτητα,-
δυσκολος,-
διαρροια,-
ατελειες,-
σκουπιδια,-
πολωση,-
παρεμβει,-
καταγμα,-
βιαστικα,-
αντιπαθεια,-
τσιγαρο,-
πολεμικος,-
κηλιδα,-
πεισμα,-
μυστηριωδης,-
ματ,-
κατωτερος,-
κακοποιηση,-
συρρικνωση,-
παραχωρησεις,-
μοναξια,-
ζηλια,-
επικρισεις,-
εξαντληση,-
δοκιμαστει,-
αποκρουση,-
απιστευτη,-
αντιτιμο,-
bug,-
ψυχρα,-
τυραννια,-
ταραγμενη,-
πανωλη,-
διαχυτη,-
συγχυσης,-
σαμποταζ,-
μολυνθει,-
κατεστραμμενο,-
ακαταλληλη,-
ενσταση,-
παραξενα,-
κατακραυγη,-
βαφη,-
αποστροφη,-
τυφλος,-
σχισμες,-
στραβα,-
παρενοχληση,-
παραβιαζουν,-
κατεστραμμενη,-
ικανοποιημενος,-
εκραγει,-
δυστυχια,-
αδικια,-
ψευδης,-
φονος,-
προκαταληψεις,-
δωροδοκια,-
βιωσιμη,-
φθινει,-
κρεμεται,-
επιτιθεμενος,-
ελαττωματα,-
εγκαυματα,-
απροθυμια,-
απορριπτεται,-
υποπτος,-
χαμενος,-
προδοτης,-
ομοφυλοφιλος,-
μαριονετες,-
απειλουν,-
κριμα,-
δειλα,-
βομβαρδισμος,-
απορριπτοντας,-
απελπισια,-
απεφευγε,-
τυψεις,-
τραγικος,-
τραγικα,-
ακουσια,-
αγανακτηση,-
παρεξηγηση,-
αμελεια,-
παραδοξως,-
νοσημα,-
μυστικος,-
βαρυς,-
αχρηστα,-
υποβαθμιση,-
κραυγη,-
διψα,-
ανακαλεσει,-
υπολειμμα,-
ταπεινωση,-
σκηνοθετημενη,-
μεθυσμενος,-
απομιμηση,-
ταμπου,-
εξοργισμενος,-
εμπολεμη,-
ασαφεια,-
αρνητικος,-
ανταγωνιστης,-
τρελος,-
τηξη,-
συμφορηση,-
σατιρικα,-
προσβαλλουν,-
εκτενης,-
ανεκδοτο,-
περιπετειωδης,-
αντικρουομενες,-
hard,-
τρομος,-
σχισμη,-
προδιδει,-
μολυσμενο,-
γουρουνια,-
αντιποινων,-
κρεμονται,-
κατασκευασμα,-
διωγμος,-
διαλειμματα,-
απιστια,-
αδιακριτως,-
περιττο,-
πανωλεθρια,-
μελαγχολια,-
καταδικαζει,-
επεκρινε,-
αφοπλισμο,-
αυλακι,-
ψευδως,-
τεχνασματα,-
στεκι,-
λανθανουσα,-
καταπονηση,-
ελαττωμα,-
βιαιος,-
αταξια,-
αποτυγχανουν,-
αντιφαση,-
συμφορες,-
παρεμποδιση,-
παραλειψη,-
αποδυναμωση,-
ατακτα,-
ασθμα,-
undefined,-
punk,-
σκλαβος,-
καταχρησεις,-
δυσαρεστημενος,-
Διαβολος,-
συνουσια,-
κρατουμενος,-
διαβολος,-
πανικος,-
λεπιδα,-
κυβος,-
απεγνωσμενα,-
αμηχανια,-
αγνοησει,-
break,-
ταπεινωτικη,-
συγκλονισε,-
στενοτερο,-
μπαστουνι,-
ατυχια,-
αποκηρυξει,-
απαγορευουν,-
αδυναμος,-
φοβοι,-
υποκρισια,-
σκοτεινος,-
μπαζα,-
μολυσμενα,-
καταγγειλει,-
απομονωμενος,-
απογοητευτικη,-
ανταγωνιζονται,-
ανατρεποντας,-
αμμωδης,-
απειρος,-
ψυχρος,-
χοιρων,-
φοβαμαι,-
κατολισθηση,-
καταπνιξη,-
εγκληματιας,-
γροθια,-
βιασμο,-
αδυνατος,-
σφοδρα,-
παρανοηση,-
παιδικος,-
κουραση,-
κολλησει,-
εξαπολυσει,-
δονηση,-
αγριοτητα,-
φαρσα,-
κρυολογημα,-
death,-
οσφρηση,-
υποκινηση,-
μονωση,-
κατηχηση,-
ηττημενος,-
ημιτελης,-
εξορισει,-
ανησυχος,-
πανουκλα,-
κοπος,-
εξανθημα,-
ενοχληση,-
βραχωδης,-
αναιρει,-
ατυχος,-
τιμωρουνται,-
παρεκκλιση,-
οπισθοχωρηση,-
ζαρια,-
δαγκωμα,-
αποσυντιθεται,-
αδιακοπη,-
εριδα,-
αχρηστες,-
χολη,-
τεταμενες,-
πνιγμο,-
νευρικα,-
ιδιωτης,-
επληγησαν,-
εκχωρηση,-
αορατος,-
απεχθεια,-
ακαμψια,-
ακινητος,-
αθλιες,-
φοβερα,-
συντριψει,-
συναγερμου,-
συμφορα,-
ρηξεις,-
πλαγιος,-
ιδιοσυγκρασια,-
ελλιπης,-
ανυπακοη,-
υποπτη,-
υβρεις,-
σβηστει,-
πασχοντες,-
ογκωδης,-
καταστροφικα,-
θυμωμενος,-
ερημωση,-
γκανγκστερ,-
αλαζονεια,-
παραπονο,-
λιμος,-
κενος,-
καταπατηση,-
δεσποτης,-
βλαπτει,-
ανεπιτυχης,-
problem,-
τρομακτικο,-
στασιμοτητα,-
σπανιος,-
παρασιτο,-
παγωνει,-
καυστικο,-
κακια,-
θηριο,-
εκφοβισμο,-
δολωμα,-
ατελης,-
απαγορευοντας,-
hedge,-
συνωμοσιες,-
σπαταλη,-
προωρος,-
πικρια,-
παραποιηση,-
παραβασεις,-
μπουκοταζ,-
μοναχικος,-
κινουν,-
καταβυθιση,-
θιγει,-
ατυχης,-
απορριμματα,-
φοβια,-
τονισμος,-
ποναει,-
παραδοξα,-
ορφανο,-
ξοανο,-
μαστιγιο,-
κακοβουλο,-
εγκληματικοτητα,-
διαταραξη,-
διασπουν,-
ανισοτητες,-
αδικιες,-
αγριος,-
σφετεριστης,-
παραπλανητικη,-
ληγουν,-
λαφυρο,-
θρασος,-
επιπλοκη,-
δικαιολογιες,-
απληστια,-
αναισθησια,-
revert,-
ψευτης,-
τσεκουρι,-
στερεοτυπο,-
πειστικη,-
μειωσεις,-
λεμονι,-
καταδικασμενος,-
θανατηφορος,-
αποδοκιμασια,-
ανασφαλεια,-
αναρχισμος,-
thrash,-
φορολογηση,-
τραυματισει,-
πηδημα,-
καυγαδες,-
ημικρανια,-
ασυμφορη,-
απροθυμα,-
απολιθωμενο,-
ανατροπες,-
επαρση,-
χυμα,-
φτωχοτερες,-
υστερει,-
υγρος,-
ρατσισμος,-
παραπονεθηκε,-
παραπτωμα,-
μπερδεμα,-
μεταβλητοτητα,-
καλογερος,-
ευθραυστο,-
αποξενωση,-
ανθρωποκτονια,-
αναρχικος,-
αιρετικος,-
ασχετος,-
σκουρια,-
παρανομος,-
μυστηριωδως,-
κλεψιματα,-
καταπτωση,-
θυμος,-
διστακτικος,-
διαβοητος,-
γουρουνι,-
απαλλοτριωση,-
απατες,-
αχυρο,-
αρπαξαν,-
αλυτο,-
σκλαβα,-
προκλητικα,-
παρεμβαινουν,-
μισει,-
καταστροφικος,-
κακομεταχειριση,-
καθισμενος,-
εξαπατηση,-
δυσφημιση,-
βιασυνη,-
αφελης,-
αντιφρονουντων,-
ανενεργος,-
ακαταπαυστα,-
αδρανης,-
υπερθερμανση,-
ταλαιπωρια,-
περιπλανωμενος,-
παρανοια,-
ξεσπασματα,-
μεροληψια,-
ενδιαφερομενος,-
εμπαθεια,-
διχονοια,-
διστακτικα,-
δευτερευων,-
αργος,-
απωθησαν,-
αποκλινουν,-
ανωμαλος,-
αντιταχθει,-
χαλια,-
υστερια,-
υπονοια,-
υποδουλωση,-
σκλαβια,-
περιεργος,-
ματαιωση,-
καλουπι,-
επιδεινωθει,-
ενοχλητικο,-
διοδια,-
αποκηρυξη,-
αναπηρος,-
αιματοχυσια,-
αγριοι,-
object,-
ψευδαισθησεις,-
φραξει,-
φονικο,-
σκελετους,-
καταρες,-
αναποτελεσματικη,-
αιφνιδιως,-
static,-
φθηνα,-
υστερηση,-
τσιμπημα,-
πρηξιμο,-
παρασιτων,-
παραπλανητικες,-
παρανοησεις,-
παγωσε,-
ερημιτης,-
επιφυλακτικος,-
εξογκωμα,-
βασανιζει,-
αποπληρωμης,-
απανθρωπη,-
ανταρτης,-
αδιαφορος,-
junk,-
υστερουν,-
υποτιμητικο,-
υπαιτιος,-
συντριβοντας,-
στερηθει,-
στερει,-
πικρα,-
παρεμποδιζουν,-
οδοφραγματα,-
εξομολογηση,-
βλαπτουν,-
βασανιστηκαν,-
ασυμφωνια,-
απων,-
απροθυμος,-
αναρχικη,-
αμφιλεγομενος,-
ακαταλληλος,-
φασαρια,-
τεταμενη,-
ξεπερασμενη,-
ξεγελασε,-
λυκαινα,-
ιππεας,-
εξαντλημενος,-
διαρροες,-
δειλος,-
δαιμονιο,-
απροβλεπτες,-
ανοησιες,-
αμφιβαλλω,-
αλλεργια,-
ακινησια,-
αδικαιολογητη,-
ελκος,-
φτυαρι,-
σουρουπο,-
σερνει,-
μετριοτητα,-
μηνυσε,-
μεθη,-
μαστιγα,-
κοιλωμα,-
θηριωδιες,-
ζομπι,-
δυσλειτουργιες,-
δεισιδαιμονια,-
βαρβαρος,-
αυταρχικος,-
αποχετευση,-
απατεωνες,-
ανταγωνιστικων,-
αναθυμιασεις,-
αθετηση,-
ασκοπα,-
ανεργος,-
χειροτερος,-
φυγας,-
φιλονικια,-
υποτροπη,-
σφηνα,-
συναγωνισμος,-
πλανες,-
παραμεληση,-
παραβατες,-
παγωμα,-
μολυνουν,-
μανιωδης,-
κακοηθη,-
εχθρικος,-
επιφυλακτικη,-
δυσαρεστησε,-
διαφωνωντας,-
διαμετρικα,-
βαναυσα,-
ατροφια,-
απαισιοδοξια,-
ακαθαριστο,-
αδικαιολογητα,-
εξαλλος,-
collapse,-
abort,-
φτηνα,-
υποτιμητικα,-
υποκινητης,-
σφοδρος,-
προληπτικο,-
πλαγιως,-
παραλειποντας,-
ουλες,-
οδυνηρο,-
μπαλαντερ,-
κακοβουλος,-
εξαπατησης,-
δολια,-
δειλια,-
αντικρουσει,-
issue,-
errors,-
attack,-
φασισμος,-
τρελα,-
τραχια,-
σχολαστικος,-
προδιδουν,-
προβοκατσια,-
πονοκεφαλους,-
ομολογω,-
νευρικος,-
μισητος,-
μισθωσης,-
κρυφος,-
καταδιωκουν,-
ετοιμοθανατος,-
επειγον,-
εκκεντρικος,-
διαμαρτυρονταν,-
βλασφημια,-
απειρια,-
απαθεια,-
ανακριβης,-
αλλεργιες,-
εφοδος,-
crash,-
πονοι,-
περιοριστικη,-
παχυς,-
πασχων,-
κυνικος,-
καταγγελλει,-
ιμπεριαλιστικη,-
εξαπατησει,-
διαστρεβλωση,-
βιαιως,-
απολυσεις,-
αντιαεροπορικο,-
αδιστακτος,-
blind,-
φλεγμονωδη,-
υπονομευει,-
στενοτητα,-
προσβεβλημενος,-
παραπλανησει,-
μαστιγια,-
κρυος,-
κουρασμενος,-
κατακλυσμος,-
ενοχλημενος,-
διαταραχθει,-
ατελεια,-
αποσαθρωση,-
απογοητευμενοι,-
ανοησια,-
αλγος,-
slave,-
φιασκο,-
σφυριγμα,-
πατ,-
παραξενος,-
μιγαδικος,-
λυπηρο,-
κουρασμενοι,-
κοκκωδη,-
κλαπει,-
καταπιεστικη,-
επισφαλης,-
διαφθειρει,-
απογοητευτικο,-
αναιρεθει,-
αλλοδαπος,-
συκοφαντια,-
ναρκωτικο,-
μετριος,-
κυρωση,-
κιγκλιδωμα,-
επιβλαβης,-
βασανιζεται,-
αποδυναμωσει,-
απενεργοποιηση,-
ανεξηγητη,-
αναισθητος,-
αιφνιδιος,-
risk,-
bash,-
φρικτη,-
πρωτογονος,-
προσκρουσεις,-
πονοκεφαλος,-
παραληρημα,-
κομπους,-
κωδικοποιημενα,-
κουραστικη,-
κατηγορω,-
θρηνος,-
εκμηδενιση,-
βρισιες,-
απελπισμενος,-
ανυπομονησια,-
ανησυχητικο,-
ανακριβεια,-
ανενδοτος,-
ανακρουση,-
αγανακτισμενος,-
χοντρος,-
ταραχωδης,-
ταστα,-
σχαρα,-
ρωγμη,-
πονηρος,-
πνιξει,-
πλανοδιος,-
πικρα,-
ξαφνικος,-
ντροπαλος,-
ληθαργος,-
θυελλωδης,-
θλιβερα,-
εφιαλτης,-
ερημια,-
ειδωλολατρης,-
ατιμωση,-
αποκαλυπτικη,-
αντισταθμιση,-
ανησυχητικη,-
ανηθικοτητα,-
αναξιοπιστια,-
αγραμματος,-
χαλαροτητα,-
φανατισμος,-
υποψιαζομαι,-
υπονομευση,-
τηγανι,-
στοιχειο,-
περιττος,-
παγετος,-
ουλη,-
μονοτονια,-
ματαιοδοξια,-
μαντρα,-
καταχρηστικη,-
κακοβουλα,-
θορυβους,-
εξτρεμιστες,-
διαστροφη,-
διεξοδος,-
δεσποινιδα,-
βλακεια,-
ασημαντος,-
απροσδιοριστο,-
αποσυρω,-
αποστραγγιση,-
απογοητευσεις,-
αντικρουει,-
αντεκρουσε,-
ανισορροπια,-
αναστελλουν,-
αγωνιες,-
αγενης,-
problems,-
φραγμενο,-
υποτυπωδης,-
συγχεουν,-
σκεπτικισμος,-
παγιδευση,-
ορμητικος,-
νευρικοτητα,-
μομφη,-
μιζερια,-
λιποταξια,-
λακκος,-
κοροιδευει,-
κακοηθης,-
θυσιαστηκαν,-
επεπληξε,-
δυσφημηση,-
ασυνηθιστος,-
απωτερος,-
απλοικη,-
αβασιμη,-
εγνοια,-
εβλαψε,-
αρρητος,-
cancer,-
Lied,-
χιονοστιβαδα,-
φονιας,-
υποτακτικος,-
σκεπτικος,-
σακος,-
προληπτικος,-
παραπλανητικα,-
μαινεται,-
λογομαχια,-
λιποθυμια,-
λανθασμενος,-
κατακλυζουν,-
ζοφερη,-
εμποδιζονται,-
διαμαρτυρονται,-
γυναικας,-
βαρεθει,-
αποσυντιθενται,-
απολογητες,-
ακανονιστος,-
αβαθης,-
wrong,-
ψευδος,-
χλευαζει,-
χαμενοι,-
φταιξιμο,-
φρενιτιδα,-
φοριουνται,-
υπονοουμενο,-
ρυτιδες,-
πλημμυριζουν,-
οπισθοδρομηση,-
μικτος,-
μηνυσει,-
ηλιθιος,-
εξωγαμο,-
ελαττωματικη,-
διαταραγμενη,-
γελοια,-
αυταπατες,-
αποθαρρυνουν,-
ανεπιθυμητος,-
ανεπαρκως,-
αναξιοπιστος,-
αιμορραγιες,-
Χαρος,-
tank,-
split,-
rue,-
matte,-
limited,-
issues,-
dead,-
brute,-
bad,-
ψευτες,-
χλιδη,-
χειροτερευση,-
φραγμος,-
τυλιγμενη,-
τραχυς,-
τεμπελης,-
συνθλιψη,-
ριζοσπαστικος,-
ρελαντι,-
παγωνια,-
οπισθιος,-
οξυθυμος,-
οδοντωτος,-
μπουντρουμια,-
μανιωδως,-
μεθυσος,-
λιβανι,-
κρεμασμενα,-
κρισιμος,-
κατασβεση,-
θυμιαμα,-
ζητιανος,-
ερειπωμενος,-
ερειπιο,-
επικρινοντας,-
επιπονες,-
εναντιος,-
εισχωρηση,-
βραστο,-
ασυνεπεια,-
αρνουμενη,-
αποτυχημενος,-
απαρατηρητος,-
ανασκευη,-
αδιαθεσια,-
ασχημος,-
zombie,-
wild,-
err,-
χειραγωγησης,-
τονιζω,-
ρατσιστης,-
παραφροσυνη,-
παραλογα,-
οχια,-
οικτρα,-
μπερδεμενη,-
μοχθηρος,-
ματαιωσει,-
κωλυμα,-
κτηνος,-
κλικα,-
κατηγορηματικος,-
επιδεινωσει,-
εξαρτημενος,-
δονησης,-
δυσμενης,-
διεφθαρμενος,-
διαταρασσουν,-
διαδοσεις,-
δεκαρα,-
βρασμος,-
βερνικι,-
αστειος,-
αποτομος,-
απαθης,-
ανεπιβεβαιωτες,-
αγενεια,-
εμφραξη,-
αβολα,-
gauche,-
fall,-
critical,-
φαυλος,-
φασιστας,-
προβληματικος,-
περιοριστικος,-
περιπλοκος,-
παρενοχλουν,-
παραγραφη,-
ναιφ,-
μισαλλοδοξια,-
μεταμελεια,-
λαχταρα,-
κυπρινος,-
κρεμασμα,-
καταστελλουν,-
καμακι,-
ιδιοτελεια,-
επιπληξη,-
εκφοβισμος,-
εκρηκτικος,-
διακωμωδει,-
δεσποινις,-
βασανιστηριο,-
ασυνεχεια,-
απολογητης,-
απελπιστικα,-
ανοητος,-
αντισυνταγματικος,-
αναποφευκτος,-
αλλοτριωση,-
αθλιοτητα,-
αβεβαιος,-
εσυραν,-
απιστος,-
αλυτα,-
αλεσμα,-
αδικος,-
sorry,-
garbage,-
dump,-
υβρις,-
χαλαρος,-
χανω,-
φαγουρα,-
τιμωρουν,-
τελμα,-
προκαλω,-
παρεμποδιζεται,-
παραβατης,-
ολοκληρωτικος,-
ξινη,-
λυπημενος,-
λεκεδες,-
καυγας,-
κακοποιος,-
θορυβωδης,-
θηριωδια,-
επικριτης,-
εκφυλισμος,-
δριμυτητα,-
δραπετης,-
ατιμια,-
αποκλινουσες,-
απογοητευτικα,-
απαρχαιωμενο,-
αμειλικτος,-
αδεξιοτητα,-
αθικτος,-
usurp,-
syndrome,-
χωματερη,-
χοιρος,-
φωτοβολιδες,-
φευγω,-
υπαινιγμος,-
υπεργηρος,-
τυραννικος,-
συνωστισμος,-
σταζει,-
σταβλοι,-
σαβανο,-
πορπη,-
προκλητικος,-
παρανοικος,-
πανουργος,-
οφθαλμαπατη,-
μελαγχολικος,-
μαχητικος,-
μαρμελαδα,-
κυβοι,-
κακοποιους,-
ερεθισμος,-
εξαγριωσε,-
δολιοφθορα,-
δηλητηριωδης,-
γεροντοκορη,-
βρωμια,-
βιασμος,-
ασυνεπης,-
απροσεξια,-
απολυταρχια,-
απαραδεκτος,-
απαισιοδοξη,-
ανυποψιαστος,-
αλαζονικο,-
αδεξιος,-
εγκαυμα,-
απιστους,-
αμιλλα,-
fail,-
dark,-
bugs,-
ωμοτητα,-
φοβισμενος,-
φλυαρια,-
υπερμεγεθης,-
τηγανητο,-
ταψι,-
ταπεινωσει,-
συγχιση,-
συγχεει,-
στομφο,-
στασιμος,-
σκανδαλωδης,-
σερνεται,-
παχυσαρκος,-
παραλυσει,-
παθητικος,-
ξεπερασμενος,-
μπελας,-
μεθυσι,-
κλαιω,-
καταθλιπτικο,-
καταφωρα,-
καρικατουρα,-
καθυστερημενος,-
ζαρι,-
επιμαχες,-
εξατμισεις,-
εμφατικα,-
εκτοπισμενοι,-
δυσπιστος,-
δονειται,-
διαπαλη,-
βαρετο,-
βαθουλωμα,-
ανυποληψια,-
αντιμετωπιζω,-
ανηλεως,-
αναποτελεσματικοτητα,-
ανημπορος,-
αμφισβητω,-
αμυδρος,-
αλητης,-
αθερινα,-
αγνοω,-
αβλεψια,-
tout,-
rail,-
lag,-
kill,-
delay,-
SAP,-
χωματερες,-
χρονιος,-
υποκριτης,-
τσουκνιδα,-
συνωμοτης,-
σκαρφαλωμα,-
ραγα,-
πληγωνει,-
πλασματικος,-
παχυτερο,-
παραμορφωμενη,-
παραλειπουν,-
παλουκι,-
παγωμενος,-
παχνη,-
νωθροτητα,-
